## Interface: 60000
## X-Min-Interface: 50001
## Title:|cffffe00a<|r|cffff7d0aDBM|r|cffffe00a>|r |cff0055FFData Broker|r
## Title-deDE:|cffffe00a<|r|cffff7d0aDBM|r|cffffe00a>|r |cff0055FFLibDataBroker-Plugin|r
## RequiredDeps: DBM-Core
## OptionalDependencies: LibStub, CallbackHandler-1.0, LibDataBroker-1.1
## DefaultState: enabled
## Author: Tandanu and Nitram
## URL: http://www.deadlybossmods.com
localization.en.lua
localization.de.lua
localization.cn.lua
localization.tw.lua
localization.kr.lua
localization.es.lua
localization.it.lua
LibStub.lua
CallbackHandler-1.0.lua
LibDataBroker-1.1.lua
DBM-LDB.lua



