## Interface: 60000
## Title: WeakAuras 2
## Author: Mirrored
## Version: 2.0.9.9
## Notes: A powerful, comprehensive utilty for displaying graphics and information based on buffs, debuffs, and other triggers.
## Notes-esES: Potente y completa aplicación que te permitirá mostrar por pantalla múltiples diseños, basados en beneficios, perjuicios y otros activadores.
## Notes-deDE: Ein leistungsfähiges, umfassendes Addon zur grafischen Darstellung von Informationen von Auren, Cooldowns, Timern und vielem mehr.
## Notes-ruRU: Мощный, многосторонний инструмент для отображения графики и информации, основанной на баффах, дебаффах и других триггерах.
## Notes-zhTW: 一個強大且全面實用的顯示圖形和訊息基於增益，減益和其它觸發。
## X-Author-Server: Dragonmaw US
## X-Author-Faction: Horde
## X-Email: mirror@uga.edu
## X-Category: Interface Enhancements
## DefaultState: Enabled
## LoadOnDemand: 0
## SavedVariables: WeakAurasSaved
## OptionalDeps: Ace3, LibCompress, LibSharedMedia-3.0, AceGUI-3.0-SharedMediaWidgets, Masque, GTFO, LibChatAnims, LibBabble-Race-3.0, LibButtonGlow-1.0
## X-Curse-Packaged-Version: 2.0.9.9
## X-Curse-Project-Name: WeakAuras 2
## X-Curse-Project-ID: weakauras-2
## X-Curse-Repository-ID: wow/weakauras-2/mainline

embeds.xml
Init.lua

locales.xml

Prototypes.lua
Types.lua
WeakAuras.lua
Transmission.lua

RegionTypes\progresstexture.lua
RegionTypes\texture.lua
RegionTypes\aurabar.lua
RegionTypes\icon.lua
RegionTypes\text.lua

RegionTypes\group.lua
RegionTypes\dynamicgroup.lua
RegionTypes\model.lua
