## Title: Lib: AdvancedIconSelector-MTK
## Notes: Provides a searchable icon selection GUI to addons, no longer supported by the original author. Local copy for Macro Toolkit, maintained by Deepac
## Version: 6.0.0.0 (1.0.9)
## Author: Darthyl of Bronzebeard-US, Deepac
## Interface: 60000
## OptionalDeps: Ace3, LibDebug
## X-Curse-Packaged-Version: v6.0.3.13
## X-Curse-Project-Name: Macro Toolkit
## X-Curse-Project-ID: macro-toolkit
## X-Curse-Repository-ID: wow/macro-toolkit/mainline

## LoadOnDemand: 1

### Localization
Locales\enUS.lua

### Main file
LibAdvancedIconSelector-MTK.lua
