## Interface: 60000
## Title: |cffFF9900WoW-|r|cff46921APro|r Dailies
## Notes: Daily quest guides created by the WoW-Pro Community
## Author: Jiyambi
## Dependencies: WoWPro
## Version: 6.0.3J
## X-Category: Quest
## X-License: Creative Commons Attribution-NonCommercial-NoDerivs 3.0 Unported License.


WoWPro_Dailies.lua

Alliance\Guides.xml
Horde\Guides.xml
Neutral\Guides.xml

WoWPro_Dailies_Parser.lua
WoWPro_Dailies_Config.lua
WoWPro_Dailies_GuideList.lua
