## Interface: 60000
## Title: PetTracker
## Notes: Tracking pets in and out of combat since 2012.
## Author: Jaliborc (João Cardoso)
## Version: 6.0.16

## SavedVariables: PetTracker_Sets
## SavedVariablesPerCharacter: PetTracker_State
## X-Category: Battle Pets
## OptionalDeps: WoWUnit

Libs\Libs.xml
Localization\Include.xml

PetTracker.lua

Core\Include.xml
Core\Tests\Include.xml

Map\Include.xml
Combat\Include.xml
Tracking\Include.xml

Features\Include.xml