﻿## Interface: 60000
## LoadOnDemand: 1
## Title: Lib: PeriodicTable-3.1 [|cffeda55fInstanceLoot|r]
## Notes: PeriodicTable data module.
## Author: Nymbia
## Version: 3.1
## Dependencies: LibPeriodicTable-3.1
## X-Category: Library
## X-License: LGPL v2.1
## X-PeriodicTable-3.1-Module: InstanceLoot
## X-Curse-Packaged-Version: r475
## X-Curse-Project-Name: LibPeriodicTable-3.1
## X-Curse-Project-ID: libperiodictable-3-1
## X-Curse-Repository-ID: wow/libperiodictable-3-1/mainline

LibPeriodicTable-3.1-InstanceLoot.lua
