## Interface: 60000
## Title: |cff1784d1AddOnSkins|r
## Version: 3.12
## Author: Azilroka, Sortokk
## SavedVariablesPerCharacter: AddOnSkinsOptions
## OptionalDep: BuyEmAll, DSM, ElvUI, Tukui, HydraUI
## X-Tukui-ProjectID: 128
## X-Tukui-ProjectFolders: AddOnSkins

Load_AddOnSkins.xml