## Interface: 60000
## Title: LibTabbedFrame-1.0
## Notes: Handle Player sized frames with tabs
## Author: Sutorix=AT=hotmail.com
## Version: 0.2a
## X-Category: Libraries

LibFrameHandler.xml
