## Interface: 60000
## LoadOnDemand: 1
## Title: Lib: Sink-2.0
## Notes: Library that handles chat output.
## Notes-zhCN: 处理聊天输出的库文件。
## Notes-zhTW: 處理頻道輸出的函數庫。
## Author: Funkydude, Rabbit
## X-Category: Library
## OptionalDeps: LibStub
## X-License: CC-BY-NC-SA 3.0
## X-Curse-Packaged-Version: r100-release
## X-Curse-Project-Name: LibSink-2.0
## X-Curse-Project-ID: libsink-2-0
## X-Curse-Repository-ID: wow/libsink-2-0/mainline

embeds.xml
LibSink-2.0\lib.xml

