## Author: Allara
## Interface: 60000
## Notes: Rarity configuration. Use AddonLoader to load this on demand.
## Title: Rarity [|caaedc99fOptions|r]
## Dependencies: Rarity
## X-Part-Of: Rarity
## LoadManagers: AddonLoader
## X-LoadOn-Slash: /rarity, /rare
## X-LoadOn-InterfaceOptions: Rarity
## X-Curse-Packaged-Version: r410-release
## X-Curse-Project-Name: Rarity
## X-Curse-Project-ID: rarity
## X-Curse-Repository-ID: wow/rarity/mainline

Options.lua
