﻿## Interface: 60000
## Title: DataStore_Auctions
## Notes: Stores information about character auctions and bids
## Author: Thaoky (EU-Marécages de Zangar)
## Version: 6.0.001
## Dependencies: DataStore
## OptionalDeps: Ace3
## SavedVariables: DataStore_AuctionsDB
## X-Category: Interface Enhancements
## X-Embeds: Ace3
## X-Curse-Packaged-Version: r41
## X-Curse-Project-Name: DataStore_Auctions
## X-Curse-Project-ID: datastore_auctions
## X-Curse-Repository-ID: wow/datastore_auctions/mainline

locale.xml

DataStore_Auctions.lua
Options.xml
