## Interface: 60000
## LoadOnDemand: 1
## Title: Lib: Babble-CreatureType-3.0
## Notes: A library to help with localization of the output of UnitCreatureType.
## Author: Kemayo
## X-eMail: kemayo AT gmail DOT com
## X-Category: Library
## X-License: MIT
## X-Curse-Packaged-Version: 6.0-release11
## X-Curse-Project-Name: LibBabble-CreatureType-3.0
## X-Curse-Project-ID: libbabble-creaturetype-3-0
## X-Curse-Repository-ID: wow/libbabble-creaturetype-3-0/mainline

LibStub\LibStub.lua
lib.xml
